<?xml version="1.0" encoding="UTF-8"?>
<svg width="25px" height="22px" viewBox="0 0 25 22" version="1.1" xmlns="http://www.w3.org/2000/svg" xmlns:xlink="http://www.w3.org/1999/xlink">
    <title>形状结合</title>
    <g id="页面-1" stroke="none" stroke-width="1" fill="none" fill-rule="evenodd" fill-opacity="0.8">
        <g id="状态栏" transform="translate(-1214.000000, -1030.000000)" fill="#000000">
            <path d="M1235.65316,1045.03947 C1235.72531,1045.07556 1235.78381,1045.1341 1235.81988,1045.2063 L1238.94473,1051.46011 C1239.03681,1051.64439 1238.96216,1051.86848 1238.778,1051.96062 C1238.72624,1051.98652 1238.66916,1052 1238.61128,1052 L1232.36159,1052 C1232.15569,1052 1231.98878,1051.83298 1231.98878,1051.62695 C1231.98878,1051.56903 1232.00226,1051.51191 1232.02814,1051.46011 L1235.15299,1045.2063 C1235.24507,1045.02202 1235.469,1044.94733 1235.65316,1045.03947 Z M1231.41908,1030.19518 L1231.51787,1030.27722 L1234.48399,1033.069 L1236.94296,1033.06977 C1238.07029,1033.06977 1238.98417,1033.98602 1238.98417,1035.11628 L1238.98417,1040.23256 C1238.98417,1041.36282 1238.07029,1042.27907 1236.94296,1042.27907 L1228.77813,1042.27907 C1227.65081,1042.27907 1226.73693,1041.36282 1226.73693,1040.23256 L1226.73599,1038.712 L1220.31181,1038.71226 C1218.50333,1038.71226 1217.02528,1040.229 1217.02528,1042.11428 C1217.02528,1043.93454 1218.40315,1045.41125 1220.12595,1045.51092 L1220.31181,1045.51629 L1226.01782,1045.51629 C1228.96979,1045.51629 1231.35086,1047.95969 1231.35086,1050.9595 C1231.35086,1051.52317 1230.89273,1051.98011 1230.32761,1051.98011 C1229.80284,1051.98011 1229.37034,1051.58611 1229.31123,1051.07853 L1229.30435,1050.9595 C1229.30435,1049.13924 1227.92648,1047.66253 1226.20368,1047.56286 L1226.01782,1047.55749 L1220.31181,1047.55749 C1217.35984,1047.55749 1214.97877,1045.11409 1214.97877,1042.11428 C1214.97877,1039.18946 1217.24228,1036.79358 1220.09151,1036.67561 L1220.31181,1036.67106 L1226.73599,1036.671 L1226.73693,1035.11628 C1226.73693,1033.98602 1227.65081,1033.06977 1228.77813,1033.06977 L1231.50099,1033.069 L1230.12082,1031.7693 C1229.70986,1031.38251 1229.68945,1030.73494 1230.07524,1030.32292 C1230.43134,1029.94259 1231.00908,1029.8959 1231.41908,1030.19518 Z M1236.94296,1035.11628 L1228.77813,1035.11628 L1228.77813,1040.23256 L1236.94296,1040.23256 L1236.94296,1035.11628 Z" id="形状结合"></path>
        </g>
    </g>
</svg>